{
  "database": {
    "rules": "database.rules.json"
  },
  "firestore": {
    "rules": "firestore.rules",
    "indexes": "firestore.indexes.json"
  },
  "functions": {
    "predeploy": [
      "yarn --cwd \"$RESOURCE_DIR\" lint",
      "yarn --cwd \"$RESOURCE_DIR\" build"
    ]
  },
  "emulators": {
    "auth": {
      "port": 9099
    },
    "functions": {
      "port": 5001
    },
    "firestore": {
      "port": 8080
    },
    "database": {
      "port": 9000
    },
    "ui": {
      "enabled": true
    }
  }
}
